\select@language {brazil}
\contentsline {chapter}{\numberline {1}\IeC {\'I}ndice dos Arquivos}{1}{chapter.1}
\contentsline {section}{\numberline {1.1}Lista de Arquivos}{1}{section.1.1}
\contentsline {chapter}{\numberline {2}Arquivos}{3}{chapter.2}
\contentsline {section}{\numberline {2.1}Refer\IeC {\^e}ncia do Arquivo src/geranum.c}{3}{section.2.1}
\contentsline {chapter}{\IeC {\'I}ndice}{5}{section*.2}
